18 Manipuler des données avec le tidyverse
…
# Si on sélectionne une colonne dans un tibble,
# on obtient un tibble avec une seule colonne.
bpe_ens_2018_tbl[ , 1]

# A tibble: 1,035,564 × 1
  REG  
  <chr>
1 84   
2 84   
3 84   
4 84   
5 84   
6 84   
# ℹ 1,035,558 more rows
…
# Afficher les premières lignes d'un tibble
bpe_ens_2018_tbl

# A tibble: 1,035,564 × 7
  REG   DEP   DEPCOM DCIRIS    AN TYPEQU NB_EQUIP
  <chr> <chr> <chr>  <chr>  <dbl> <chr>     <dbl>
1 84    01    01001  01001   2018 A401          2
2 84    01    01001  01001   2018 A404          4
3 84    01    01001  01001   2018 A504          1
4 84    01    01001  01001   2018 A507          1
5 84    01    01001  01001   2018 B203          1
6 84    01    01001  01001   2018 C104          1
# ℹ 1,035,558 more rows
…
18.2.4.2 Comment utiliser l’opérateur pipe avec le tidyverse

Un traitement statistique avec les packages du tidyverse prend généralement la forme d’une succession de verbes séparés par l’opérateur pipe (%>%). Il est possible d’aller à la ligne en mettant le pipe en bout de ligne (mais pas en début de ligne).

Voici un exemple détaillé pour comprendre l’utilisation du pipe. Toutes les fonctions utilisées sont présentées ailleurs dans cette fiche. Ce code se lit comme ceci : on part de la base permanente des équipements 2018, puis on la transforme en tibble, puis on conserve uniquement les stations services TYPEQU == "B316", puis on groupe les observations par département group_by(DEP), puis on calcule la somme du nombre de stations-services par département summarise(nb_equip_total = sum(NB_EQUIP, na.rm = TRUE)).

nombre <- bpe_ens_2018 %>%
  as_tibble() %>%
  filter(TYPEQU == "B316") %>% 
  group_by(DEP) %>% 
  summarise(nombre_station_serv = sum(NB_EQUIP, na.rm = TRUE)) 
nombre

# A tibble: 96 × 2
  DEP   nombre_station_serv
  <chr>               <dbl>
1 01                    110
2 02                     91
3 03                     78
4 04                     48
5 05                     43
6 06                    148
# ℹ 90 more rows
…
summarise() : calculer une statistique à partir de données ;

group_by() : faire des opérations par groupe.

18.3.1.1 Sélectionner des variables : select()

La fonction select() permet de sélectionner des variables par leur nom, ou par une condition sur leur nom. Cette fonction est principalement utilisée de deux façons :

Avec une liste de noms de variables. Le code suivant sélectionne le code commune, le type d’équipement et le nombre d’équipement dans la base permanente des équipements :

bpe_ens_2018_tbl %>% 
  select(DEPCOM, TYPEQU, NB_EQUIP)

# A tibble: 1,035,564 × 3
  DEPCOM TYPEQU NB_EQUIP
  <chr>  <chr>     <dbl>
1 01001  A401          2
2 01001  A404          4
3 01001  A504          1
4 01001  A507          1
5 01001  B203          1
6 01001  C104          1
# ℹ 1,035,558 more rows

Avec la position des colonnes. Le code suivant sélectionne les cinq premières colonnes :

bpe_ens_2018_tbl %>% 
  select(1:5)

# A tibble: 1,035,564 × 5
  REG   DEP   DEPCOM DCIRIS    AN
  <chr> <chr> <chr>  <chr>  <dbl>
1 84    01    01001  01001   2018
2 84    01    01001  01001   2018
3 84    01    01001  01001   2018
4 84    01    01001  01001   2018
5 84    01    01001  01001   2018
6 84    01    01001  01001   2018
# ℹ 1,035,558 more rows

Avec une condition logique. Par exemple, la fonction starts_with("DEP") permet de sélectionner toutes les variables dont le nom commence par “DEP”.

bpe_ens_2018_tbl %>% 
  select(starts_with("DEP"))

# A tibble: 1,035,564 × 2
  DEP   DEPCOM
  <chr> <chr> 
1 01    01001 
2 01    01001 
3 01    01001 
4 01    01001 
5 01    01001 
6 01    01001 
# ℹ 1,035,558 more rows
…
select(all_of(...))
sélectionne les colonnes listées dans un vecteur en paramètre

select(any_of(...))
identique à all_of(), mais sans erreur si la colonne n’existe pas

select(everything())
toutes les colonnes (utile pour mettre une nouvelle colonne devant les autres)

On peut aussi renommer des colonnes avec la syntaxe select(data, nouveau_nom = selection_colonne) :

  bpe_ens_2018_tbl %>% 
    select(dept = DEP, depcom = DEPCOM)

# A tibble: 1,035,564 × 2
  dept  depcom
  <chr> <chr> 
1 01    01001 
2 01    01001 
3 01    01001 
4 01    01001 
5 01    01001 
6 01    01001 
# ℹ 1,035,558 more rows

18.3.1.2 Renommer des variables : rename()

La fonction rename() permet de renommer des variables. La syntaxe est la suivante : rename(data, nouveau_nom = ancien nom). Voici un exemple :

bpe_ens_2018_tbl %>% 
  rename(code_commune = DEPCOM)

# A tibble: 1,035,564 × 7
  REG   DEP   code_commune DCIRIS    AN TYPEQU NB_EQUIP
  <chr> <chr> <chr>        <chr>  <dbl> <chr>     <dbl>
1 84    01    01001        01001   2018 A401          2
2 84    01    01001        01001   2018 A404          4
3 84    01    01001        01001   2018 A504          1
4 84    01    01001        01001   2018 A507          1
5 84    01    01001        01001   2018 B203          1
6 84    01    01001        01001   2018 C104          1
# ℹ 1,035,558 more rows

La fonction rename_with() permet de renommer un groupe de colonnes avec une fonction. La syntaxe est la suivante : rename_with(data, nom_fonction, selection_colonnes). Voici un exemple qui met en minuscules tous les noms de colonnes :

bpe_ens_2018_tbl %>% 
  rename_with(tolower)

# A tibble: 1,035,564 × 7
  reg   dep   depcom dciris    an typequ nb_equip
  <chr> <chr> <chr>  <chr>  <dbl> <chr>     <dbl>
1 84    01    01001  01001   2018 A401          2
2 84    01    01001  01001   2018 A404          4
3 84    01    01001  01001   2018 A504          1
4 84    01    01001  01001   2018 A507          1
5 84    01    01001  01001   2018 B203          1
6 84    01    01001  01001   2018 C104          1
# ℹ 1,035,558 more rows

18.3.1.3 Sélectionner des observations : filter()

Le verbe filter() permet de sélectionner des observations selon une ou plusieurs conditions logiques. Voici un exemple de code qui sélectionne les magasins de chaussures (TYPEQU == "B304") dans le premier arrondissement de Paris (DEPCOM == "75101") dans la BPE.

bpe_ens_2018_tbl %>% 
  filter(DEPCOM == "75101" & TYPEQU == "B304")

# A tibble: 12 × 7
  REG   DEP   DEPCOM DCIRIS        AN TYPEQU NB_EQUIP
  <chr> <chr> <chr>  <chr>      <dbl> <chr>     <dbl>
1 11    75    75101  75101_0101  2018 B304          2
2 11    75    75101  75101_0103  2018 B304          1
3 11    75    75101  75101_0201  2018 B304         26
4 11    75    75101  75101_0202  2018 B304          6
5 11    75    75101  75101_0203  2018 B304         17
6 11    75    75101  75101_0204  2018 B304         13
# ℹ 6 more rows
…
Conserver les observations pour lesquelles la variable est manquante
filter(is.na(pop_2016))

Conserver les observations pour lesquelles la variable est renseignée
filter( !is.na(pop_2016))

18.3.1.4 Trier la table : arrange()

Le verbe arrange() permet de trier les observations de la table selon une ou plusieurs colonnes. Par défaut, arrange trie par ordre croissant. Il faut utiliser desc(nom_de_variable) pour trier par ordre décroissant. Le code suivant trie la BPE selon le code commune et le type d’équipement.

bpe_ens_2018_tbl %>% 
  arrange(DEPCOM, TYPEQU)

# A tibble: 1,035,564 × 7
  REG   DEP   DEPCOM DCIRIS    AN TYPEQU NB_EQUIP
  <chr> <chr> <chr>  <chr>  <dbl> <chr>     <dbl>
1 84    01    01001  01001   2018 A401          2
2 84    01    01001  01001   2018 A404          4
3 84    01    01001  01001   2018 A504          1
4 84    01    01001  01001   2018 A507          1
5 84    01    01001  01001   2018 B203          1
6 84    01    01001  01001   2018 C104          1
# ℹ 1,035,558 more rows
…
Trier sur une colonne en ordre décroissant
arrange(desc(NB_EQUIP))

Comme il n’est pas nécessaire dans R de trier les tables avant de faire une jointure (merge), le tri est utile surtout pour afficher à l’écran un tableau synthétique de données.

18.3.1.5 Ajouter et modifier des colonnes : mutate()

La fonction mutate() permet de créer de nouvelles colonnes ou de modifier des colonnes existantes. Il est possible d’utiliser toutes sortes de fonctions à l’intérieur d’une étape mutate(). Le code suivant crée une variable NB_EQUIP_3PLUS qui vaut TRUE si le nombre d’équipement est supérieur ou égal à 3, et FALSE sinon.

bpe_ens_2018_tbl %>% 
  mutate(NB_EQUIP_3PLUS = (NB_EQUIP >= 3))

# A tibble: 1,035,564 × 8
  REG   DEP   DEPCOM DCIRIS    AN TYPEQU NB_EQUIP NB_EQUIP_3PLUS
  <chr> <chr> <chr>  <chr>  <dbl> <chr>     <dbl> <lgl>         
1 84    01    01001  01001   2018 A401          2 FALSE         
2 84    01    01001  01001   2018 A404          4 TRUE          
3 84    01    01001  01001   2018 A504          1 FALSE         
4 84    01    01001  01001   2018 A507          1 FALSE         
5 84    01    01001  01001   2018 B203          1 FALSE         
6 84    01    01001  01001   2018 C104          1 FALSE         
# ℹ 1,035,558 more rows
…
bpe_ens_2018_tbl %>%  
group_by(DEPCOM) %>% 
mutate(NB_EQUIP_TOT = sum(NB_EQUIP, na.rm = TRUE))

18.3.1.7 Faire des opérations par groupe : group_by()

La fonction group_by() permet de définir des groupes dans la table de données pour faire des opérations par groupe. L’utilisation de group_by() rend très utiles les opérations avec summarise(). Le code suivant groupe les données de la BPE par département group_by(DEP) puis calcule le nombre total d’équipements sum(NB_EQUIP, na.rm = TRUE) et le nombre total de boulangeries sum(NB_EQUIP * (TYPEQU == "B203"), na.rm = TRUE).

bpe_ens_2018_tbl %>% 
  group_by(DEP) %>%
  summarise(NB_EQUIP_TOT = sum(NB_EQUIP, na.rm = TRUE),
            NB_BOULANGERIES_TOT = sum(NB_EQUIP * (TYPEQU == "B203"), na.rm = TRUE))

# A tibble: 101 × 3
  DEP   NB_EQUIP_TOT NB_BOULANGERIES_TOT
  <chr>        <dbl>               <dbl>
1 01           21394                 401
2 02           15534                 339
3 03           12216                 299
4 04            8901                 185
5 05            8785                 175
6 06           66766                 966
# ℹ 95 more rows

La fonction group_by peut également modifier le comportement des fonctions filter ou mutate, comme pour summarise. L’instruction suivante permet ainsi d’ajouter à la BPE une variable égale au nombre total de boulangeries dans le département.

bpe_ens_2018_tbl %>% 
  group_by(DEP) %>%
  mutate(NB_BOULANGERIES_DEP = sum(NB_EQUIP * (TYPEQU == "B203"), na.rm = TRUE))

# A tibble: 1,035,564 × 8
# Groups:   DEP [101]
  REG   DEP   DEPCOM DCIRIS    AN TYPEQU NB_EQUIP NB_BOULANGERIES_DEP
  <chr> <chr> <chr>  <chr>  <dbl> <chr>     <dbl>               <dbl>
1 84    01    01001  01001   2018 A401          2                 401
2 84    01    01001  01001   2018 A404          4                 401
3 84    01    01001  01001   2018 A504          1                 401
4 84    01    01001  01001   2018 A507          1                 401
5 84    01    01001  01001   2018 B203          1                 401
6 84    01    01001  01001   2018 C104          1                 401
# ℹ 1,035,558 more rows

L’instruction suivante permet de ne conserver que les communes pour lesquelles le nombre d’équipements est le plus important de leur région.

bpe_ens_2018_tbl %>% 
  group_by(REG) %>%
  filter(NB_EQUIP == max(NB_EQUIP))

# A tibble: 18 × 7
# Groups:   REG [18]
  REG   DEP   DEPCOM DCIRIS        AN TYPEQU NB_EQUIP
  <chr> <chr> <chr>  <chr>      <dbl> <chr>     <dbl>
1 27    25    25056  25056_0102  2018 B302        104
2 94    2A    2A041  2A041       2018 A504        110
3 75    33    33063  33063_0505  2018 A504        172
4 76    34    34003  34003_0201  2018 A504        287
5 53    35    35288  35288_0101  2018 A504        132
6 52    44    44109  44109_0106  2018 A504        236
# ℹ 12 more rows
…
si vous ne savez pas si une table comporte des groupes, vous pouvez afficher la liste des variables de groupe avec la fonction group_vars() ;

si vous appliquez une instruction group_by() à une table qui comporte déjà des groupes, alors les groupes sont redéfinis ;

il est prudent d’appliquer la fonction ungroup() à vos données une fois que les opérations par groupe ont été réalisées, afin que les opérations suivantes ne soient pas effectuées par groupe par mégarde.

18.3.1.8 Appliquer une fonction dplyr sur un groupe de colonnes : across()

La fonction across() permet de sélectionner un groupe de colonnes sur lequel on veut appliquer une fonction dplyr. Ainsi on peut appliquer une fonction sur des colonnes en les sélectionnant comme le fait select(). Si on veut sélectionner des colonnes en fonction de leur type, on utilise en outre where(). Le code suivant groupe les données de la BPE avec les deux colonnes dont le nom commence par “DEP”, puis effectue la somme de toutes les colonnes de type numérique.

bpe_ens_2018_tbl %>% 
  group_by(across(starts_with('DEP'))) %>%
  summarise(across(where(is.numeric), sum, na.rm = TRUE)) 

# A tibble: 34,065 × 4
# Groups:   DEP [101]
  DEP   DEPCOM     AN NB_EQUIP
  <chr> <chr>   <dbl>    <dbl>
1 01    01001   22198       15
2 01    01002    4036        2
3 01    01004  472212      655
4 01    01005   64576       68
5 01    01006    6054        3
6 01    01007   58522       60
# ℹ 34,059 more rows
…
separate_wider_position permet d’effectuer cette séparation sur la base d’une largeur ;

separate_wider_delim permet d’effectuer cette séparation sur la base d’un séparateur identifié.

Ces fonctions partagent comme argument principal le nom de la colonne à scinder.

La fonction separate_wider_position attend ensuite l’argument widths sous la forme d’un vecteur qui indique la position des éléments à scinder.

Voici un exemple qui utilise la table des communes du Code Officiel Géographique. Dans cette table, la colonne com (code commune Insee) contient deux informations : le numéro du département et le numéro de la commune.

cog_com_2019_tbl <- doremifasolData::cog_com_2019 %>% as_tibble()
cog_com_2019_tbl

# A tibble: 37,930 × 11
  typecom com   reg   dep   arr   tncc  ncc       nccenr libelle can   comparent
  <chr>   <chr> <chr> <chr> <chr> <chr> <chr>     <chr>  <chr>   <chr> <chr>    
1 COM     01001 84    01    012   5     ABERGEME… Aberg… L'Aber… 0108  <NA>     
2 COM     01002 84    01    011   5     ABERGEME… Aberg… L'Aber… 0101  <NA>     
3 COM     01004 84    01    011   1     AMBERIEU… Ambér… Ambéri… 0101  <NA>     
4 COM     01005 84    01    012   1     AMBERIEU… Ambér… Ambéri… 0122  <NA>     
5 COM     01006 84    01    011   1     AMBLEON   Amblé… Ambléon 0104  <NA>     
6 COM     01007 84    01    011   1     AMBRONAY  Ambro… Ambron… 0101  <NA>     
# ℹ 37,924 more rows

Voici comment on peut utiliser separate_wider_position pour scinder com en deux nouvelles colonnes code_dep et code_com. La première colonne code_dep est extraite à partir des deux premiers caractères (position 2) et la deuxième colonne code_com est extraite à partir du troisième caractère (position 3). Vous pouvez noter que la colonne com a disparu, car par défaut les fonctions préfixées par separate_ supprime la colonne scindée. Si on veut la conserver, il faut ajouter l’option cols_remove = FALSE.

cog_com_2019_tbl %>%
  separate_wider_position(com, widths = c(code_dep = 2, code_com = 3))

# A tibble: 37,930 × 12
  typecom code_dep code_com reg   dep   arr   tncc  ncc     nccenr libelle can  
  <chr>   <chr>    <chr>    <chr> <chr> <chr> <chr> <chr>   <chr>  <chr>   <chr>
1 COM     01       001      84    01    012   5     ABERGE… Aberg… L'Aber… 0108 
2 COM     01       002      84    01    011   5     ABERGE… Aberg… L'Aber… 0101 
3 COM     01       004      84    01    011   1     AMBERI… Ambér… Ambéri… 0101 
4 COM     01       005      84    01    012   1     AMBERI… Ambér… Ambéri… 0122 
5 COM     01       006      84    01    011   1     AMBLEON Amblé… Ambléon 0104 
6 COM     01       007      84    01    011   1     AMBRON… Ambro… Ambron… 0101 
# ℹ 37,924 more rows
# ℹ 1 more variable: comparent <chr>
…
La fonction unite permet est de réaliser l’opération inverse de separate : regrouper plusieurs colonnes en une seule. Elle prend trois arguments principaux :

le nom de la colonne à créer ;

un vecteur indiquant les noms des variables à regrouper ;

le séparateur sep qui indique quel séparateur doit être introduit entre les variables regroupées (par défaut, unite utilise le caractère _).

Voici un exemple où l’on regroupe le code commune Insee et le nom officiel de la commune, avec ” - ” comme séparateur. Vous pouvez noter que les colonnes com et ncc ont disparu, car par défaut unite supprime les colonnes regroupées. Si on veut les conserver, il faut ajouter l’option remove = FALSE.

cog_com_2019_tbl %>% 
  unite(code_et_nom, c("com", "ncc"), sep = " - ") 

# A tibble: 37,930 × 10
  typecom code_et_nom     reg   dep   arr   tncc  nccenr libelle can   comparent
  <chr>   <chr>           <chr> <chr> <chr> <chr> <chr>  <chr>   <chr> <chr>    
1 COM     01001 - ABERGE… 84    01    012   5     Aberg… L'Aber… 0108  <NA>     
2 COM     01002 - ABERGE… 84    01    011   5     Aberg… L'Aber… 0101  <NA>     
3 COM     01004 - AMBERI… 84    01    011   1     Ambér… Ambéri… 0101  <NA>     
4 COM     01005 - AMBERI… 84    01    012   1     Ambér… Ambéri… 0122  <NA>     
5 COM     01006 - AMBLEON 84    01    011   1     Amblé… Ambléon 0104  <NA>     
6 COM     01007 - AMBRON… 84    01    011   1     Ambro… Ambron… 0101  <NA>     
# ℹ 37,924 more rows
…
# A tibble: 4 × 3
  pays       annee victoire
  <chr>      <dbl>    <dbl>
1 France      1998        1
2 France      2018        1
3 Espagne     2010        1
4 Angleterre  1966        1

On peut l’utiliser de cette manière :

df %>% complete(pays, annee)

# A tibble: 12 × 3
  pays       annee victoire
  <chr>      <dbl>    <dbl>
1 Angleterre  1966        1
2 Angleterre  1998       NA
3 Angleterre  2010       NA
4 Angleterre  2018       NA
5 Espagne     1966       NA
6 Espagne     1998       NA
# ℹ 6 more rows

On voit que les combinaisons manquantes ont bien été ajoutées par complete. Par défaut les lignes insérées comprennent des valeurs manquantes NA pour les colonnes restantes. On peut néanmoins choisir une autre valeur avec l’argument fill, qui prend la forme d’une liste nommée. Dans le cas présent, la liste ne comprend qu’un seul élément car il n’y a qu’une seule variable à compléter :

df %>% complete(pays, annee, fill = list(victoire = 0))

# A tibble: 12 × 3
  pays       annee victoire
  <chr>      <dbl>    <dbl>
1 Angleterre  1966        1
2 Angleterre  1998        0
3 Angleterre  2010        0
4 Angleterre  2018        0
5 Espagne     1966        0
6 Espagne     1998        0
# ℹ 6 more rows
…
