19 Manipuler des données avec arrow
…
Deuxième différence: alors que l’affichage dans la console d’un data.frame ou tibble permet de visualiser les premières lignes, la même opération sur un Arrow Table affiche uniquement des métadonnées (nombre de lignes et de colonnes, nom et type des colonnes).

# Affichage d'un tibble
bpe_ens_2018_tbl

# A tibble: 1,035,564 × 7
   REG   DEP   DEPCOM DCIRIS    AN TYPEQU NB_EQUIP
   <chr> <chr> <chr>  <chr>  <dbl> <chr>     <dbl>
 1 84    01    01001  01001   2018 A401          2
 2 84    01    01001  01001   2018 A404          4
 3 84    01    01001  01001   2018 A504          1
 4 84    01    01001  01001   2018 A507          1
 5 84    01    01001  01001   2018 B203          1
 6 84    01    01001  01001   2018 C104          1
 7 84    01    01001  01001   2018 D233          1
 8 84    01    01001  01001   2018 F102          1
 9 84    01    01001  01001   2018 F111          1
10 84    01    01001  01001   2018 F113          1
# ℹ 1,035,554 more rows
…
