22 Joindre des tables de données
…
On voit ici qu’il n’y a aucun doublon sur les identifiants dans la table issue du répertoire Filosofi. En revanche, on constate qu’il y a un grand grand nombre de doublons sur les identifiants dans la table du code officiel géographique. Cette présence de doublons rend nécessaire une analyse de cette table avant de réaliser la jointure.

# Approche dplyr/tidyverse
doublons <- cog_com_2019_tbl %>% 
              group_by(com) %>% 
              summarise(nb_obs = n()) %>% 
              filter(nb_obs > 1) %>% 
              arrange(-nb_obs)
doublons

# A tibble: 677 × 2
  com   nb_obs
  <chr>  <int>
1 01015      2
2 01025      2
3 01033      2
4 01036      2
5 01080      2
6 01095      2
# ℹ 671 more rows
…
table_jointe_tbl <- left_join(x = filosofi_com_2016_tbl, 
                              y = cog_com_2019_tbl, 
                              by = c("CODGEO" = "com"))
dim(table_jointe_tbl)

[1] 35609     6

Règle n°5 : vérifier la présence éventuelle de valeurs manquantes (NA) dans les variables d’intérêt.

Vous pouvez par exemple utiliser la fonction is.na() qui permet de repérer les observations manquantes dans les variables provenant de la table de droite. S’il y a des valeurs manquantes, cela peut indiquer que cette variable contient des valeurs manquantes dans la table de droite, ou que certaines observations de la table de gauche n’ont pas de correspondances dans la table de droite. Dans l’exemple qui suit, on voit que le département est manquant pour plusieurs centaines d’observations de la table jointe.

table_jointe_tbl %>% filter(is.na(dep))

# A tibble: 677 × 6
  CODGEO  MED16 TP6016 typecom libelle                  dep  
  <chr>   <dbl>  <dbl> <chr>   <chr>                    <chr>
1 01015  22357      NA COMD    Arbignieu                <NA> 
2 01025  21971.      6 COMD    Bâgé-la-Ville            <NA> 
3 01033  21405.     16 COMD    Bellegarde-sur-Valserine <NA> 
4 01036  21142.     NA COMD    Belmont-Luthézieu        <NA> 
5 01080  21599      NA COMD    Champdor                 <NA> 
6 01095  20242.     NA COMD    Chavannes-sur-Suran      <NA> 
# ℹ 671 more rows
…
